<?xml version="1.0" encoding="UTF-8" standalone="no"?>
<!DOCTYPE svg PUBLIC "-//W3C//DTD SVG 1.1//EN" "http://www.w3.org/Graphics/SVG/1.1/DTD/svg11.dtd">
<svg width="100%" height="100%" viewBox="0 0 238 222" version="1.1" xmlns="http://www.w3.org/2000/svg" xmlns:xlink="http://www.w3.org/1999/xlink" xml:space="preserve" xmlns:serif="http://www.serif.com/" style="fill-rule:evenodd;clip-rule:evenodd;stroke-linecap:round;stroke-linejoin:round;stroke-miterlimit:1.5;">
    <g transform="matrix(1,0,0,1,-1621,-798)">
        <g transform="matrix(1,0,0,1,271.214,182.16)">
            <g id="Complex-Colorful-Wordmark-Below" serif:id="Complex Colorful Wordmark Below">
                <g transform="matrix(1,0,0,1,1288.48,-199.399)">
                    <g>
                        <g transform="matrix(1,0,0,1,-381.24,94.4141)">
                            <g transform="matrix(1,0,0,1,-1178.46,-77.1755)">
                                <path d="M1717.83,885.417L1651.2,885.417C1649,885.417 1647.22,883.63 1647.22,881.429C1647.22,879.228 1649,877.441 1651.2,877.441L1717.83,877.441C1717.85,874.284 1717.9,871.127 1717.97,867.97C1698.83,868.993 1680.12,870.86 1660.87,872.9C1658.68,873.132 1656.72,871.543 1656.48,869.354C1656.25,867.165 1657.84,865.2 1660.03,864.968C1679.64,862.89 1698.7,860.995 1718.21,859.972C1718.83,843.068 1720.18,826.162 1722.27,809.253C1722.54,807.068 1724.54,805.514 1726.72,805.783C1728.9,806.053 1730.46,808.046 1730.19,810.231C1728.16,826.692 1726.83,843.149 1726.2,859.604C1729.33,859.481 1732.47,859.383 1735.62,859.311L1735.62,802.426C1735.62,800.225 1737.41,798.438 1739.61,798.438C1741.81,798.438 1743.6,800.225 1743.6,802.426L1743.6,859.191C1746.71,859.167 1749.84,859.172 1753,859.207C1752.37,842.884 1751.05,826.559 1749.03,810.231C1748.76,808.046 1750.32,806.053 1752.5,805.783C1754.68,805.514 1756.68,807.068 1756.95,809.253C1759.01,825.959 1760.36,842.661 1760.99,859.361C1764.39,859.455 1767.82,859.586 1771.28,859.756C1787.43,860.552 1803.62,863.317 1819.19,864.968C1821.38,865.2 1822.97,867.165 1822.74,869.354C1822.51,871.543 1820.54,873.132 1818.35,872.9C1802.92,871.264 1786.89,868.511 1770.89,867.723C1767.64,867.563 1764.43,867.439 1761.24,867.348C1761.32,870.712 1761.37,874.076 1761.39,877.441L1828.02,877.441C1830.22,877.441 1832,879.228 1832,881.429C1832,883.63 1830.22,885.417 1828.02,885.417L1761.39,885.417C1761.37,888.574 1761.32,891.731 1761.25,894.888C1780.39,893.865 1799.11,891.998 1818.35,889.958C1820.54,889.726 1822.51,891.315 1822.74,893.503C1822.97,895.692 1821.38,897.658 1819.19,897.89C1799.58,899.968 1780.52,901.863 1761.01,902.886C1760.39,919.79 1759.04,936.695 1756.95,953.605C1756.68,955.79 1754.68,957.344 1752.5,957.074C1750.32,956.804 1748.76,954.812 1749.03,952.627C1751.07,936.166 1752.39,919.709 1753.02,903.254C1749.89,903.377 1746.76,903.475 1743.6,903.547L1743.6,960.431C1743.6,962.632 1741.81,964.42 1739.61,964.42C1737.41,964.42 1735.62,962.632 1735.62,960.431L1735.62,903.667C1732.51,903.691 1729.38,903.686 1726.22,903.651C1726.85,919.974 1728.17,936.299 1730.19,952.627C1730.46,954.812 1728.9,956.804 1726.72,957.074C1724.54,957.344 1722.54,955.79 1722.27,953.605C1720.21,936.899 1718.86,920.197 1718.23,903.496C1714.83,903.403 1711.4,903.272 1707.94,903.101C1691.79,902.306 1675.6,899.541 1660.03,897.89C1657.84,897.658 1656.25,895.692 1656.48,893.503C1656.72,891.315 1658.68,889.726 1660.87,889.958C1676.3,891.593 1692.33,894.347 1708.33,895.135C1711.58,895.295 1714.8,895.419 1717.98,895.51C1717.9,892.146 1717.85,888.781 1717.83,885.417ZM1725.96,867.595C1725.88,870.877 1725.83,874.159 1725.8,877.441L1735.62,877.441L1735.62,867.288C1732.38,867.362 1729.16,867.466 1725.96,867.595ZM1753.25,867.186C1750.01,867.148 1746.79,867.142 1743.6,867.166L1743.6,877.441L1753.42,877.441C1753.39,874.023 1753.34,870.605 1753.25,867.186ZM1753.26,895.263C1753.34,891.981 1753.39,888.699 1753.42,885.417L1743.6,885.417L1743.6,895.57C1746.84,895.495 1750.06,895.392 1753.26,895.263ZM1725.97,895.671C1729.21,895.71 1732.43,895.716 1735.62,895.692L1735.62,885.417L1725.8,885.417C1725.83,888.835 1725.88,892.253 1725.97,895.671Z" style="fill:rgb(244,213,74);"/>
                            </g>
                            <g transform="matrix(1.06647,0,0,1.06647,370.602,256.479)">
                                <circle cx="178.676" cy="513.635" r="61.352" style="fill:rgb(244,213,74);"/>
                            </g>
                        </g>
                        <g transform="matrix(0.887096,0,0,0.887096,21.411,443.024)">
                            <path d="M178.676,452.283C212.537,452.283 240.027,479.774 240.027,513.635C240.027,547.496 212.537,574.986 178.676,574.986C144.815,574.986 117.324,547.496 117.324,513.635C117.324,479.774 144.815,452.283 178.676,452.283ZM178.676,505.659C183.078,505.659 186.651,509.233 186.651,513.635C186.651,518.037 183.078,521.61 178.676,521.61C174.274,521.61 170.7,518.037 170.7,513.635C170.7,509.233 174.274,505.659 178.676,505.659Z" style="fill:rgb(226,180,35);"/>
                            <path d="M178.676,452.283C212.537,452.283 240.027,479.774 240.027,513.635C240.027,547.496 212.537,574.986 178.676,574.986C144.815,574.986 117.324,547.496 117.324,513.635C117.324,479.774 144.815,452.283 178.676,452.283ZM178.676,505.659C183.078,505.659 186.651,509.233 186.651,513.635C186.651,518.037 183.078,521.61 178.676,521.61C174.274,521.61 170.7,518.037 170.7,513.635C170.7,509.233 174.274,505.659 178.676,505.659Z" style="fill:rgb(226,180,35);"/>
                        </g>
                    </g>
                    <g transform="matrix(1,0,0,0.757826,-78.9509,586.153)">
                        <path d="M258.864,478.394L258.864,422.651" style="fill:none;stroke:white;stroke-width:8.99px;"/>
                    </g>
                    <g transform="matrix(0.988648,0,0,0.988648,-349.087,322.053)">
                        <path d="M558.559,559.652C563.83,559.652 568.11,563.932 568.11,569.203C568.11,574.475 563.83,578.754 558.559,578.754C553.287,578.754 549.007,574.475 549.007,569.203C549.007,563.932 553.287,559.652 558.559,559.652ZM558.559,565.968C556.773,565.968 555.323,567.418 555.323,569.203C555.323,570.989 556.773,572.439 558.559,572.439C560.344,572.439 561.794,570.989 561.794,569.203C561.794,567.418 560.344,565.968 558.559,565.968Z" style="fill:white;"/>
                    </g>
                    <g transform="matrix(-0.988648,0,0,0.988648,708.914,321.938)">
                        <path d="M558.559,559.652C553.287,559.652 549.007,563.932 549.007,569.203C549.007,574.475 553.287,578.754 558.559,578.754C563.83,578.754 568.11,574.475 568.11,569.203C568.11,563.932 563.83,559.652 558.559,559.652ZM558.559,565.968C560.344,565.968 561.794,567.418 561.794,569.203C561.794,570.989 560.344,572.439 558.559,572.439C556.773,572.439 555.323,570.989 555.323,569.203C555.323,567.418 556.773,565.968 558.559,565.968Z" style="fill:white;"/>
                    </g>
                    <g transform="matrix(-0.988648,0,0,0.988648,732.132,335.926)">
                        <path d="M558.559,559.652C553.287,559.652 549.007,563.932 549.007,569.203C549.007,574.475 553.287,578.754 558.559,578.754C563.83,578.754 568.11,574.475 568.11,569.203C568.11,563.932 563.83,559.652 558.559,559.652ZM558.559,565.968C560.344,565.968 561.794,567.418 561.794,569.203C561.794,570.989 560.344,572.439 558.559,572.439C556.773,572.439 555.323,570.989 555.323,569.203C555.323,567.418 556.773,565.968 558.559,565.968Z" style="fill:white;"/>
                    </g>
                    <g transform="matrix(-0.849977,0,0,0.855795,659.277,398.282)">
                        <path d="M563.973,614.173L536.657,601.928L536.657,577.936" style="fill:none;stroke:white;stroke-width:9.35px;stroke-linejoin:miter;"/>
                    </g>
                    <g transform="matrix(0.849977,0,0,0.855795,-299.45,398.167)">
                        <path d="M563.973,624.736L536.657,606.569L536.657,577.936" style="fill:none;stroke:white;stroke-width:9.35px;stroke-linejoin:miter;"/>
                    </g>
                    <g transform="matrix(1.14583,0,0,1.14583,-466.922,228.28)">
                        <circle cx="564.511" cy="585.065" r="47.498" style="fill:none;stroke:white;stroke-width:6.98px;"/>
                    </g>
                </g>
                <g transform="matrix(0.42152,-0.0022071,0.0022071,0.42152,780.064,521.115)">
                    <g>
                        <path d="M1471.54,654.39C1475.23,655.973 1480.31,658.777 1480.03,663.5C1479.9,665.696 1478.83,667.957 1478.02,669.961C1467.89,694.238 1457.53,718.418 1446.93,742.496C1446.64,743.27 1446.23,743.999 1445.8,744.702C1444.93,746.122 1443.23,747.12 1441.87,747.984C1439.7,749.354 1437.15,749.861 1434.61,749.672C1432.07,749.484 1429.62,748.606 1427.68,746.93C1426.21,745.66 1424.73,744.143 1424.06,742.279C1419.85,726.502 1415.74,710.701 1411.72,694.876C1405.31,709.325 1398.77,723.706 1392.27,738.112C1391.91,738.897 1391.35,739.601 1390.81,740.268C1390.09,741.177 1389.26,742.007 1388.35,742.734C1386.09,744.539 1383.3,745.363 1380.42,745.09C1377.87,744.847 1375.29,744.083 1373.32,742.386C1371.92,741.19 1370.54,739.763 1369.89,738.008C1369.64,737.309 1369.38,736.61 1369.12,735.911C1362.67,710.389 1356.47,684.806 1350.51,659.165C1350.04,657.023 1349.51,654.683 1349.75,652.474C1350.27,647.78 1355.75,645.938 1359.64,645.054C1361.98,644.52 1364.41,644.212 1366.81,644.461C1368.66,644.655 1370.38,645.478 1371.4,647.091C1372.69,649.13 1373.29,651.595 1373.76,653.932C1377.18,669.29 1380.69,684.629 1384.29,699.948C1390.64,685.798 1396.91,671.614 1403.11,657.396C1404.57,654.058 1407.14,651.414 1410.63,650.254C1412.43,649.648 1414.4,649.636 1416.27,649.794C1418.59,649.99 1420.72,650.995 1422.46,652.527C1423.88,653.781 1425.33,655.307 1425.87,657.174C1429.78,673.057 1433.78,688.917 1437.87,704.753C1444,690.167 1450.04,675.548 1456,660.895C1456.64,659.402 1457.29,657.897 1458.06,656.467C1458.67,655.338 1459.69,654.467 1460.74,653.759C1462.09,652.849 1463.72,652.546 1465.32,652.651C1467.48,652.791 1469.58,653.523 1471.54,654.39Z" style="fill:rgb(244,213,74);"/>
                        <path d="M1568.27,661.683C1569.2,660.269 1570.62,659.298 1572.24,658.828C1574.3,658.229 1576.5,658.118 1578.63,658.162C1580.67,658.204 1582.78,658.337 1584.73,658.95C1585.95,659.33 1587.2,659.814 1588.2,660.619C1589.09,661.331 1589.61,662.381 1589.9,663.462C1590.64,665.666 1590.64,668.148 1590.6,670.444C1590.39,683.936 1590.18,697.428 1589.96,710.919C1589.78,722.684 1585.52,733.798 1578.08,742.882C1574.13,747.547 1569.06,751.112 1563.51,753.611C1557.37,756.371 1550.63,757.485 1543.93,757.265C1537.25,757.046 1530.61,755.477 1524.71,752.273C1519.37,749.369 1514.61,745.405 1511.09,740.42C1504.22,730.887 1500.87,719.485 1501.45,707.755C1502.12,694.323 1502.79,680.891 1503.46,667.459C1503.54,665.88 1503.61,664.275 1503.9,662.716C1504.12,661.473 1504.7,660.306 1505.35,659.232C1506.18,657.848 1507.58,657 1509.11,656.596C1511.34,656.01 1513.71,656.007 1516,656.11C1518.28,656.213 1520.64,656.429 1522.81,657.213C1524.28,657.745 1525.57,658.706 1526.18,660.171C1527.42,662.781 1527.57,665.844 1527.46,668.674C1526.92,682.067 1526.38,695.461 1525.84,708.854C1525.62,714.306 1526.86,719.7 1529.34,724.553C1530.67,727.195 1532.8,729.306 1535.33,730.814C1538.26,732.568 1541.67,733.32 1545.06,733.43C1551.04,733.626 1556.73,731.593 1560.33,726.644C1563.85,721.801 1565.56,715.976 1565.71,710.023C1566.06,696.355 1566.4,682.688 1566.74,669.02C1566.8,666.653 1566.9,663.752 1568.27,661.683Z" style="fill:rgb(244,213,74);"/>
                        <path d="M1641.75,737.222C1654.31,737.17 1666.86,737.028 1679.41,736.797C1681.59,736.757 1684.06,736.745 1686.08,737.671C1687.42,738.285 1688.43,739.365 1688.92,740.761C1689.55,742.569 1689.7,744.54 1689.74,746.441C1689.78,748.341 1689.72,750.317 1689.17,752.151C1688.79,753.404 1688.06,754.546 1686.87,755.151C1684.68,756.315 1682.08,756.589 1679.64,756.634C1662.9,756.942 1646.16,757.091 1629.42,757.082C1625.43,757.08 1619.48,756.517 1618.01,751.958C1617.19,749.833 1617.19,747.357 1617.21,745.117C1617.34,720.276 1617.46,695.434 1617.59,670.592C1617.6,669.055 1617.61,667.495 1617.82,665.969C1617.99,664.717 1618.52,663.525 1619.11,662.423C1620.93,658.965 1626.27,658.829 1629.61,658.831C1633.54,658.833 1639.22,659.396 1640.78,663.771C1641.44,665.996 1641.47,668.438 1641.48,670.739C1641.57,692.9 1641.66,715.061 1641.75,737.222Z" style="fill:rgb(244,213,74);"/>
                        <path d="M1769.06,658.713C1769.88,657.23 1771.21,656.151 1772.79,655.555C1774.81,654.796 1776.99,654.514 1779.12,654.389C1781.15,654.271 1783.27,654.239 1785.27,654.696C1786.51,654.98 1787.79,655.364 1788.85,656.088C1789.79,656.728 1790.4,657.733 1790.77,658.788C1791.69,660.927 1791.87,663.402 1792.02,665.694C1792.87,679.161 1793.71,692.627 1794.56,706.094C1795.3,717.838 1791.92,729.252 1785.22,738.891C1781.65,743.852 1776.87,747.804 1771.53,750.732C1765.63,753.965 1759,755.604 1752.3,755.911C1745.61,756.217 1738.88,755.174 1732.74,752.442C1727.18,749.967 1722.13,746.388 1718.23,741.695C1710.64,732.731 1706.4,721.626 1706.07,709.888C1705.68,696.444 1705.29,683.001 1704.9,669.558C1704.86,667.978 1704.81,666.372 1704.97,664.796C1705.09,663.539 1705.58,662.33 1706.14,661.208C1706.86,659.764 1708.19,658.808 1709.68,658.285C1711.86,657.526 1714.22,657.337 1716.51,657.261C1718.79,657.184 1721.17,657.214 1723.38,657.825C1724.89,658.24 1726.25,659.097 1726.98,660.509C1728.42,663.014 1728.81,666.056 1728.92,668.886C1729.43,682.281 1729.94,695.675 1730.45,709.069C1730.66,714.522 1732.33,719.802 1735.18,724.445C1736.71,726.974 1739.01,728.911 1741.64,730.217C1744.7,731.736 1748.16,732.217 1751.55,732.061C1757.53,731.786 1763.04,729.313 1766.24,724.097C1769.37,718.993 1770.62,713.052 1770.31,707.105C1769.57,693.452 1768.84,679.8 1768.11,666.147C1767.98,663.783 1767.86,660.883 1769.06,658.713Z" style="fill:rgb(244,213,74);"/>
                        <path d="M1872.91,686.512C1880.89,685.764 1888.86,684.979 1896.83,684.157C1899.89,683.953 1904.36,683.94 1906.19,686.948C1907.63,689.059 1908.09,691.784 1908.35,694.266C1909.4,704.04 1910.45,713.813 1911.5,723.587C1911.84,726.753 1910.45,729.719 1908.49,732.129C1900.33,742.203 1887.12,746.047 1874.67,747.196C1861,748.457 1847.9,744.062 1837.44,735.242C1826.85,726.313 1820.57,713.907 1819.57,700.098C1818.58,686.523 1822.92,673.565 1832.07,663.463C1841.03,653.57 1852.99,647.437 1866.3,646.204C1877.18,645.195 1887.85,648.16 1897.21,653.661C1899.29,654.877 1901.2,656.697 1901.47,659.211C1901.76,661.974 1900.51,664.739 1899.16,667.069C1897.27,670.251 1894.39,674.709 1890.29,675.123C1887.4,675.414 1884.07,673.511 1881.67,672.275C1877.4,670.073 1872.56,669.451 1867.81,669.89C1860.99,670.52 1854.87,673.693 1850.18,678.655C1845.21,683.925 1843.13,690.864 1843.72,698.027C1844.34,705.503 1847.8,712.196 1853.59,716.974C1859.09,721.513 1865.87,724.049 1873.03,723.386C1877.67,722.957 1882.29,721.825 1886.45,719.687C1885.97,714.84 1885.5,709.993 1885.02,705.146C1881.42,705.498 1877.81,705.843 1874.2,706.181C1872.25,706.364 1869.91,706.552 1868.08,705.67C1866.84,705.073 1865.94,704.031 1865.47,702.744C1864.82,700.973 1864.58,699.053 1864.42,697.187C1864.25,695.295 1864.16,693.334 1864.52,691.457C1864.76,690.193 1865.37,689.003 1866.5,688.317C1868.41,687.152 1870.71,686.718 1872.91,686.512Z" style="fill:rgb(244,213,74);"/>
                    </g>
                </g>
                <g transform="matrix(0.264657,0,0,0.264657,1012.66,570.296)">
                    <path d="M1357.67,447.713C1379.53,447.713 1397.28,465.46 1397.28,487.32C1397.28,509.179 1379.53,526.926 1357.67,526.926C1335.81,526.926 1318.06,509.179 1318.06,487.32C1318.06,465.46 1335.81,447.713 1357.67,447.713ZM1357.67,502.754C1366.19,502.754 1373.11,495.838 1373.11,487.32C1373.11,478.801 1366.19,471.885 1357.67,471.885C1349.15,471.885 1342.24,478.801 1342.24,487.32C1342.24,495.838 1349.15,502.754 1357.67,502.754Z" style="fill:rgb(244,213,74);"/>
                </g>
                <g transform="matrix(0.264657,0,0,0.264657,1205.5,570.296)">
                    <path d="M1357.67,447.713C1379.53,447.713 1397.28,465.46 1397.28,487.32C1397.28,509.179 1379.53,526.926 1357.67,526.926C1335.81,526.926 1318.06,509.179 1318.06,487.32C1318.06,465.46 1335.81,447.713 1357.67,447.713ZM1357.67,502.754C1366.19,502.754 1373.11,495.838 1373.11,487.32C1373.11,478.801 1366.19,471.885 1357.67,471.885C1349.15,471.885 1342.24,478.801 1342.24,487.32C1342.24,495.838 1349.15,502.754 1357.67,502.754Z" style="fill:rgb(244,213,74);"/>
                </g>
            </g>
        </g>
    </g>
</svg>
