<?xml version="1.0" encoding="UTF-8" standalone="no"?>
<!DOCTYPE svg PUBLIC "-//W3C//DTD SVG 1.1//EN" "http://www.w3.org/Graphics/SVG/1.1/DTD/svg11.dtd">
<svg width="100%" height="100%" viewBox="0 0 241 228" version="1.1" xmlns="http://www.w3.org/2000/svg" xmlns:xlink="http://www.w3.org/1999/xlink" xml:space="preserve" xmlns:serif="http://www.serif.com/" style="fill-rule:evenodd;clip-rule:evenodd;stroke-linecap:round;stroke-linejoin:round;stroke-miterlimit:1.5;">
    <g transform="matrix(1,0,0,1,-1617,-506)">
        <g transform="matrix(1,0,0,1,273.111,-48.6577)">
            <g id="Complex-Colorful-Wordmark-Above" serif:id="Complex Colorful Wordmark Above">
                <g>
                    <g>
                        <g transform="matrix(1,0,0,1,-273.111,48.6577)">
                            <path d="M1719.72,654.599L1653.1,654.599C1650.9,654.599 1649.11,652.812 1649.11,650.611C1649.11,648.41 1650.9,646.623 1653.1,646.623L1719.72,646.623C1719.75,643.466 1719.79,640.309 1719.87,637.152C1700.73,638.175 1682.01,640.042 1662.77,642.082C1660.58,642.314 1658.61,640.725 1658.38,638.537C1658.15,636.348 1659.74,634.382 1661.93,634.15C1681.53,632.072 1700.6,630.177 1720.11,629.154C1720.73,612.25 1722.08,595.345 1724.17,578.435C1724.44,576.25 1726.43,574.696 1728.62,574.966C1730.8,575.236 1732.36,577.228 1732.09,579.413C1730.05,595.874 1728.72,612.331 1728.1,628.786C1731.22,628.663 1734.36,628.565 1737.52,628.493L1737.52,571.609C1737.52,569.408 1739.31,567.62 1741.51,567.62C1743.71,567.62 1745.5,569.408 1745.5,571.609L1745.5,628.373C1748.61,628.349 1751.74,628.354 1754.9,628.389C1754.27,612.066 1752.94,595.741 1750.93,579.413C1750.66,577.228 1752.21,575.236 1754.4,574.966C1756.58,574.696 1758.57,576.25 1758.84,578.435C1760.91,595.141 1762.26,611.843 1762.89,628.544C1766.29,628.637 1769.71,628.768 1773.18,628.939C1789.33,629.734 1805.51,632.499 1821.09,634.15C1823.28,634.382 1824.87,636.348 1824.63,638.537C1824.4,640.725 1822.44,642.314 1820.25,642.082C1804.82,640.447 1788.79,637.693 1772.79,636.905C1769.54,636.745 1766.32,636.621 1763.13,636.53C1763.22,639.894 1763.27,643.259 1763.29,646.623L1829.91,646.623C1832.11,646.623 1833.9,648.41 1833.9,650.611C1833.9,652.812 1832.11,654.599 1829.91,654.599L1763.29,654.599C1763.27,657.756 1763.22,660.913 1763.15,664.07C1782.29,663.047 1801,661.18 1820.25,659.14C1822.44,658.908 1824.4,660.497 1824.63,662.686C1824.87,664.875 1823.28,666.84 1821.09,667.072C1801.48,669.15 1782.42,671.045 1762.91,672.068C1762.29,688.972 1760.93,705.878 1758.84,722.787C1758.57,724.972 1756.58,726.526 1754.4,726.257C1752.21,725.987 1750.66,723.994 1750.93,721.809C1752.96,705.348 1754.29,688.891 1754.91,672.436C1751.79,672.559 1748.65,672.657 1745.5,672.729L1745.5,729.614C1745.5,731.815 1743.71,733.602 1741.51,733.602C1739.31,733.602 1737.52,731.815 1737.52,729.614L1737.52,672.849C1734.41,672.873 1731.27,672.868 1728.12,672.833C1728.75,689.156 1730.07,705.481 1732.09,721.809C1732.36,723.994 1730.8,725.987 1728.62,726.257C1726.43,726.526 1724.44,724.972 1724.17,722.787C1722.11,706.081 1720.76,689.379 1720.13,672.679C1716.73,672.585 1713.3,672.454 1709.83,672.284C1693.68,671.488 1677.5,668.723 1661.93,667.072C1659.74,666.84 1658.15,664.875 1658.38,662.686C1658.61,660.497 1660.58,658.908 1662.77,659.14C1678.2,660.776 1694.22,663.529 1710.23,664.317C1713.48,664.477 1716.69,664.601 1719.88,664.692C1719.8,661.328 1719.75,657.964 1719.72,654.599ZM1727.85,636.777C1727.77,640.059 1727.72,643.341 1727.7,646.623L1737.52,646.623L1737.52,636.47C1734.28,636.545 1731.06,636.648 1727.85,636.777ZM1755.15,636.369C1751.91,636.33 1748.69,636.324 1745.5,636.348L1745.5,646.623L1755.31,646.623C1755.29,643.205 1755.24,639.787 1755.15,636.369ZM1755.16,664.445C1755.24,661.163 1755.29,657.881 1755.31,654.599L1745.5,654.599L1745.5,664.752C1748.74,664.678 1751.96,664.574 1755.16,664.445ZM1727.86,664.854C1731.11,664.892 1734.32,664.898 1737.52,664.874L1737.52,654.599L1727.7,654.599C1727.72,658.017 1727.78,661.435 1727.86,664.854Z" style="fill:rgb(244,213,74);"/>
                        </g>
                        <g transform="matrix(1.06647,0,0,1.06647,1277.84,151.495)">
                            <circle cx="178.676" cy="513.635" r="61.352" style="fill:rgb(244,213,74);"/>
                        </g>
                        <g transform="matrix(0.887096,0,0,0.887096,1309.89,243.626)">
                            <path d="M178.676,452.283C212.537,452.283 240.027,479.774 240.027,513.635C240.027,547.496 212.537,574.986 178.676,574.986C144.815,574.986 117.324,547.496 117.324,513.635C117.324,479.774 144.815,452.283 178.676,452.283ZM178.676,505.659C183.078,505.659 186.651,509.233 186.651,513.635C186.651,518.037 183.078,521.61 178.676,521.61C174.274,521.61 170.7,518.037 170.7,513.635C170.7,509.233 174.274,505.659 178.676,505.659Z" style="fill:rgb(226,180,35);"/>
                            <path d="M178.676,452.283C212.537,452.283 240.027,479.774 240.027,513.635C240.027,547.496 212.537,574.986 178.676,574.986C144.815,574.986 117.324,547.496 117.324,513.635C117.324,479.774 144.815,452.283 178.676,452.283ZM178.676,505.659C183.078,505.659 186.651,509.233 186.651,513.635C186.651,518.037 183.078,521.61 178.676,521.61C174.274,521.61 170.7,518.037 170.7,513.635C170.7,509.233 174.274,505.659 178.676,505.659Z" style="fill:rgb(226,180,35);"/>
                        </g>
                    </g>
                    <g transform="matrix(1,0,0,0.757826,1209.53,386.755)">
                        <path d="M258.864,478.394L258.864,422.651" style="fill:none;stroke:white;stroke-width:8.99px;"/>
                    </g>
                    <g transform="matrix(0.988648,0,0,0.988648,939.395,122.654)">
                        <path d="M558.559,559.652C563.83,559.652 568.11,563.932 568.11,569.203C568.11,574.475 563.83,578.754 558.559,578.754C553.287,578.754 549.007,574.475 549.007,569.203C549.007,563.932 553.287,559.652 558.559,559.652ZM558.559,565.968C556.773,565.968 555.323,567.418 555.323,569.203C555.323,570.989 556.773,572.439 558.559,572.439C560.344,572.439 561.794,570.989 561.794,569.203C561.794,567.418 560.344,565.968 558.559,565.968Z" style="fill:white;"/>
                    </g>
                    <g transform="matrix(-0.988648,0,0,0.988648,1997.4,122.539)">
                        <path d="M558.559,559.652C553.287,559.652 549.007,563.932 549.007,569.203C549.007,574.475 553.287,578.754 558.559,578.754C563.83,578.754 568.11,574.475 568.11,569.203C568.11,563.932 563.83,559.652 558.559,559.652ZM558.559,565.968C560.344,565.968 561.794,567.418 561.794,569.203C561.794,570.989 560.344,572.439 558.559,572.439C556.773,572.439 555.323,570.989 555.323,569.203C555.323,567.418 556.773,565.968 558.559,565.968Z" style="fill:white;"/>
                    </g>
                    <g transform="matrix(-0.988648,0,0,0.988648,2020.61,136.527)">
                        <path d="M558.559,559.652C553.287,559.652 549.007,563.932 549.007,569.203C549.007,574.475 553.287,578.754 558.559,578.754C563.83,578.754 568.11,574.475 568.11,569.203C568.11,563.932 563.83,559.652 558.559,559.652ZM558.559,565.968C560.344,565.968 561.794,567.418 561.794,569.203C561.794,570.989 560.344,572.439 558.559,572.439C556.773,572.439 555.323,570.989 555.323,569.203C555.323,567.418 556.773,565.968 558.559,565.968Z" style="fill:white;"/>
                    </g>
                    <g transform="matrix(-0.849977,0,0,0.855795,1947.76,198.883)">
                        <path d="M563.973,614.173L536.657,601.928L536.657,577.936" style="fill:none;stroke:white;stroke-width:9.35px;stroke-linejoin:miter;"/>
                    </g>
                    <g transform="matrix(0.849977,0,0,0.855795,989.032,198.768)">
                        <path d="M563.973,624.736L536.657,606.569L536.657,577.936" style="fill:none;stroke:white;stroke-width:9.35px;stroke-linejoin:miter;"/>
                    </g>
                    <g transform="matrix(1.14583,4.33681e-18,-4.33681e-18,1.14583,821.56,28.8809)">
                        <circle cx="564.511" cy="585.065" r="47.498" style="fill:none;stroke:white;stroke-width:6.98px;"/>
                    </g>
                    <g transform="matrix(0.264657,0,0,0.264657,1012.66,570.296)">
                        <path d="M1357.67,447.713C1379.53,447.713 1397.28,465.46 1397.28,487.32C1397.28,509.179 1379.53,526.926 1357.67,526.926C1335.81,526.926 1318.06,509.179 1318.06,487.32C1318.06,465.46 1335.81,447.713 1357.67,447.713ZM1357.67,502.754C1366.19,502.754 1373.11,495.838 1373.11,487.32C1373.11,478.801 1366.19,471.885 1357.67,471.885C1349.15,471.885 1342.24,478.801 1342.24,487.32C1342.24,495.838 1349.15,502.754 1357.67,502.754Z" style="fill:rgb(244,213,74);"/>
                    </g>
                    <g transform="matrix(0.264657,0,0,0.264657,1205.5,570.296)">
                        <path d="M1357.67,447.713C1379.53,447.713 1397.28,465.46 1397.28,487.32C1397.28,509.179 1379.53,526.926 1357.67,526.926C1335.81,526.926 1318.06,509.179 1318.06,487.32C1318.06,465.46 1335.81,447.713 1357.67,447.713ZM1357.67,502.754C1366.19,502.754 1373.11,495.838 1373.11,487.32C1373.11,478.801 1366.19,471.885 1357.67,471.885C1349.15,471.885 1342.24,478.801 1342.24,487.32C1342.24,495.838 1349.15,502.754 1357.67,502.754Z" style="fill:rgb(244,213,74);"/>
                    </g>
                </g>
                <g transform="matrix(0.421523,0.0014714,-0.0014714,0.421523,780.564,287.827)">
                    <g>
                        <path d="M1465.49,633.721C1469.37,634.79 1475.04,636.907 1475.32,641.717C1475.45,643.914 1474.63,646.293 1474.05,648.373C1466.67,673.615 1459.54,698.926 1452.64,724.304C1452.47,725.108 1452.17,725.887 1451.86,726.643C1451.23,728.155 1449.74,729.384 1448.55,730.439C1446.69,732.084 1444.33,732.96 1441.87,733.143C1439.41,733.326 1436.95,732.807 1434.87,731.455C1433.26,730.411 1431.63,729.129 1430.7,727.409C1424.25,712.438 1417.71,697.506 1411.08,682.612C1407.19,697.901 1403.32,713.203 1399.67,728.552C1399.48,729.384 1399.06,730.178 1398.67,730.932C1398.14,731.952 1397.51,732.916 1396.77,733.798C1394.97,735.952 1392.49,737.29 1389.69,737.556C1387.22,737.791 1384.64,737.511 1382.46,736.232C1380.91,735.314 1379.33,734.173 1378.38,732.593C1378.01,731.957 1377.63,731.321 1377.25,730.685C1366.13,706.831 1354.79,683.084 1343.22,659.449C1342.29,657.466 1341.23,655.298 1340.99,653.088C1340.46,648.306 1345.71,645.335 1349.36,643.684C1351.62,642.656 1354.03,641.84 1356.51,641.582C1358.42,641.383 1360.35,641.81 1361.74,643.199C1363.45,644.917 1364.57,647.214 1365.52,649.417C1372.09,663.739 1378.59,678.098 1385,692.492C1388.56,677.374 1392.21,662.276 1395.93,647.198C1396.83,643.595 1399.01,640.56 1402.33,638.831C1404.08,637.915 1406.09,637.567 1408.03,637.403C1410.42,637.201 1412.77,637.823 1414.82,639.058C1416.46,640.049 1418.2,641.31 1419.06,643.084C1425.61,658.097 1432.09,673.147 1438.47,688.234C1442.36,672.878 1446.34,657.543 1450.4,642.231C1450.85,640.662 1451.3,639.081 1451.9,637.561C1452.38,636.347 1453.3,635.349 1454.28,634.512C1455.56,633.418 1457.19,632.908 1458.85,632.801C1461.09,632.655 1463.35,633.107 1465.49,633.721Z" style="fill:rgb(244,213,74);"/>
                        <path d="M1566.04,632.432C1566.95,630.953 1568.38,629.927 1570.01,629.388C1572.13,628.691 1574.4,628.485 1576.62,628.44C1578.74,628.397 1580.92,628.446 1582.98,628.988C1584.25,629.322 1585.56,629.757 1586.63,630.533C1587.57,631.207 1588.15,632.236 1588.49,633.318C1589.33,635.489 1589.4,637.978 1589.43,640.274C1589.65,653.765 1589.86,667.257 1590.07,680.749C1590.25,692.467 1586.41,703.691 1579.5,713.112C1575.88,717.884 1571.15,721.684 1565.88,724.483C1560.14,727.526 1553.73,729.037 1547.26,729.249C1540.81,729.461 1534.33,728.356 1528.44,725.644C1523.02,723.146 1518.11,719.584 1514.29,714.98C1506.74,706.052 1502.34,695.054 1501.76,683.37C1501.09,669.938 1500.42,656.506 1499.76,643.074C1499.68,641.495 1499.59,639.889 1499.73,638.311C1499.84,637.046 1500.32,635.827 1500.88,634.698C1501.6,633.217 1502.97,632.248 1504.5,631.704C1506.75,630.903 1509.2,630.678 1511.57,630.571C1513.94,630.464 1516.4,630.468 1518.71,631.064C1520.25,631.461 1521.68,632.295 1522.45,633.725C1523.93,636.21 1524.35,639.26 1524.46,642.095C1525,655.488 1525.54,668.881 1526.09,682.274C1526.3,687.721 1527.97,692.992 1530.79,697.649C1532.28,700.166 1534.53,702.116 1537.12,703.447C1540.11,704.979 1543.49,705.501 1546.82,705.392C1552.73,705.199 1558.15,702.8 1561.39,697.717C1564.6,692.679 1566.01,686.783 1565.86,680.84C1565.52,667.172 1565.18,653.504 1564.83,639.836C1564.78,637.468 1564.74,634.55 1566.04,632.432Z" style="fill:rgb(244,213,74);"/>
                        <path d="M1641.51,706.454C1653.79,706.505 1666.06,706.643 1678.33,706.87C1680.45,706.909 1682.88,706.996 1684.81,708.003C1686.1,708.678 1687.04,709.807 1687.44,711.21C1687.98,713.048 1688.03,715.02 1687.99,716.92C1687.95,718.821 1687.81,720.788 1687.19,722.601C1686.78,723.818 1686.03,724.937 1684.84,725.5C1682.7,726.566 1680.18,726.745 1677.83,726.702C1661.71,726.405 1645.59,726.262 1629.48,726.27C1625.53,726.273 1619.87,725.667 1618.43,721.207C1617.62,719.082 1617.6,716.616 1617.59,714.375C1617.46,689.533 1617.34,664.691 1617.21,639.85C1617.2,638.313 1617.19,636.752 1617.39,635.224C1617.56,633.966 1618.09,632.769 1618.7,631.666C1620.58,628.135 1626.15,628.021 1629.56,628.019C1633.55,628.017 1639.51,628.528 1641.12,632.998C1641.79,635.221 1641.8,637.671 1641.79,639.971C1641.69,662.132 1641.6,684.293 1641.51,706.454Z" style="fill:rgb(244,213,74);"/>
                        <path d="M1773.97,635.507C1775,634.105 1776.5,633.193 1778.17,632.785C1780.34,632.256 1782.62,632.229 1784.83,632.358C1786.95,632.481 1789.12,632.702 1791.13,633.404C1792.37,633.836 1793.64,634.373 1794.65,635.231C1795.53,635.976 1796.03,637.048 1796.29,638.153C1796.95,640.383 1796.83,642.87 1796.68,645.162C1795.84,658.628 1794.99,672.095 1794.14,685.562C1793.4,697.259 1788.69,708.147 1781.06,716.996C1777.08,721.468 1772.06,724.886 1766.58,727.262C1760.62,729.845 1754.12,730.848 1747.65,730.552C1741.19,730.256 1734.82,728.646 1729.16,725.48C1723.96,722.565 1719.34,718.628 1715.89,713.738C1709.07,704.245 1705.55,692.936 1705.89,681.243C1706.28,667.8 1706.66,654.357 1707.05,640.913C1707.1,639.334 1707.14,637.726 1707.4,636.163C1707.6,634.911 1708.18,633.733 1708.82,632.651C1709.67,631.232 1711.11,630.373 1712.67,629.951C1714.98,629.329 1717.44,629.297 1719.81,629.376C1722.18,629.456 1724.63,629.653 1726.89,630.428C1728.39,630.945 1729.76,631.889 1730.41,633.375C1731.69,635.969 1731.86,639.042 1731.76,641.877C1731.24,655.271 1730.73,668.665 1730.22,682.059C1730.01,687.506 1731.26,692.892 1733.7,697.756C1735,700.382 1737.08,702.503 1739.56,704.033C1742.42,705.795 1745.75,706.58 1749.08,706.733C1754.98,707.005 1760.58,705.039 1764.21,700.225C1767.8,695.456 1769.67,689.689 1769.99,683.752C1770.72,670.099 1771.45,656.447 1772.18,642.794C1772.31,640.428 1772.51,637.517 1773.97,635.507Z" style="fill:rgb(244,213,74);"/>
                        <path d="M1874.79,678.437C1882.83,679.191 1890.86,679.982 1898.89,680.811C1901.94,681.236 1906.36,682.149 1907.53,685.49C1908.5,687.857 1908.36,690.618 1908.1,693.1C1907.05,702.874 1906,712.647 1904.95,722.421C1904.62,725.563 1902.69,728.177 1900.32,730.15C1890.64,738.201 1877.49,739.527 1865.38,738.41C1852.08,737.182 1840.44,730.575 1831.89,720.414C1823.03,709.889 1818.71,696.73 1819.7,682.997C1820.7,669.336 1826.99,657.138 1837.8,648.678C1848.64,640.202 1861.98,636.326 1875.67,637.595C1886.9,638.635 1897.21,643.617 1905.6,651.051C1907.42,652.655 1908.98,654.835 1908.71,657.376C1908.42,660.149 1906.57,662.588 1904.75,664.574C1902.17,667.31 1898.39,671.053 1894.25,670.636C1891.32,670.34 1888.39,667.822 1886.22,666.134C1882.37,663.126 1877.62,661.601 1872.79,661.155C1865.87,660.515 1859.14,662.522 1853.56,666.646C1847.71,670.972 1844.5,677.482 1843.91,684.669C1843.3,692.124 1845.59,699.284 1850.43,704.988C1854.98,710.341 1861.05,714.048 1868.12,714.702C1872.67,715.123 1877.32,714.869 1881.72,713.573C1882.2,708.726 1882.67,703.879 1883.15,699.032C1879.57,698.682 1875.99,698.339 1872.41,698.004C1870.47,697.822 1868.15,697.579 1866.52,696.383C1865.42,695.571 1864.72,694.383 1864.49,693.036C1864.18,691.178 1864.28,689.247 1864.45,687.38C1864.62,685.488 1864.89,683.543 1865.58,681.762C1866.05,680.559 1866.87,679.499 1868.1,679.03C1870.21,678.23 1872.58,678.229 1874.79,678.437Z" style="fill:rgb(244,213,74);"/>
                    </g>
                </g>
            </g>
        </g>
    </g>
</svg>
